Fire Risk in Indigenous Territories of San Martín - Peru (2001–2024)
…
cat("→", nrow(fires_in_indigenous), "fire detections INSIDE indigenous territories\n")

## → 588 fire detections INSIDE indigenous territories

annual_freq <- fires_in_indigenous %>%
  st_drop_geometry() %>%
  count(year, name = "fire_count") %>%
  complete(year = min(year, na.rm = TRUE):max(year, na.rm = TRUE),
           fill = list(fire_count = 0)) %>%
  arrange(year)

annual_freq

## # A tibble: 24 × 2
##     year fire_count
##    <int>      <int>
##  1  2001          3
##  2  2002          7
##  3  2003          6
##  4  2004          6
##  5  2005         45
##  6  2006         19
##  7  2007         40
##  8  2008         24
##  9  2009         26
## 10  2010        111
## # ℹ 14 more rows
…
