Wildfire Analysis in Protected Area of San Martín Region (2000–2024)
…
5.2 Annual Fire
Statistics

# Aggregate fire counts by year
yearly_stats <- all_fires %>%
  st_drop_geometry() %>%
  group_by(year) %>%
  summarise(fire_count = n()) %>%
  arrange(year)

print(yearly_stats)

## # A tibble: 24 × 2
##     year fire_count
##    <int>      <int>
##  1  2001        135
##  2  2002        242
##  3  2003        281
##  4  2004        116
##  5  2005        510
##  6  2006        373
##  7  2007        543
##  8  2008        277
##  9  2009        379
## 10  2010        816
## # ℹ 14 more rows
…
